{
    "username": "dvb",
    "password": "start123",
    "dependencies_state_up_to_date": {
        "timeout_in_seconds": 50,
        "cancel_on_timeout": false
    },
    "export_environment": {
        "environment_type": "local"
    }
}